Check-in 8
…
childcare_costs <- read_csv('https://raw.githubusercontent.com/rfordatascience/tidytuesday/master/data/2023/2023-05-09/childcare_costs.csv')

Rows: 34567 Columns: 61
── Column specification ────────────────────────────────────────────────────────
Delimiter: ","
dbl (61): county_fips_code, study_year, unr_16, funr_16, munr_16, unr_20to64...

ℹ Use `spec()` to retrieve the full column specification for this data.
ℹ Specify the column types or set `show_col_types = FALSE` to quiet this message.

childcare_costs

# A tibble: 34,567 × 61
   county_fips_code study_year unr_16 funr_16 munr_16 unr_20to64 funr_20to64
              <dbl>      <dbl>  <dbl>   <dbl>   <dbl>      <dbl>       <dbl>
 1             1001       2008   5.42    4.41    6.32        4.6         3.5
 2             1001       2009   5.93    5.72    6.11        4.8         4.6
 3             1001       2010   6.21    5.57    6.78        5.1         4.6
 4             1001       2011   7.55    8.13    7.03        6.2         6.3
 5             1001       2012   8.6     8.88    8.29        6.7         6.4
 6             1001       2013   9.39   10.3     8.56        7.3         7.6
 7             1001       2014   8.5     9.18    7.95        6.8         6.8
 8             1001       2015   7.64    8.45    6.91        5.9         6.1
 9             1001       2016   5.59    6.27    4.99        4.4         4.6
10             1001       2017   5.21    5.84    4.64        4.6         4.9
# ℹ 34,557 more rows
# ℹ 54 more variables: munr_20to64 <dbl>, flfpr_20to64 <dbl>,
#   flfpr_20to64_under6 <dbl>, flfpr_20to64_6to17 <dbl>,
#   flfpr_20to64_under6_6to17 <dbl>, mlfpr_20to64 <dbl>, pr_f <dbl>,
#   pr_p <dbl>, mhi_2018 <dbl>, me_2018 <dbl>, fme_2018 <dbl>, mme_2018 <dbl>,
#   total_pop <dbl>, one_race <dbl>, one_race_w <dbl>, one_race_b <dbl>,
#   one_race_i <dbl>, one_race_a <dbl>, one_race_h <dbl>, …
…
